Project Sustainable
…
Project Sustainable

Chiara Gislon, Jacopo Passaro

16/5/2022

#Aggregation at SECTOR and COUNTRY level -> turn them into factors
# -> Summary Table within Sectors, Country 
data%>%
  mutate(TRBC_SectorName <- as.factor(TRBC_SectorName))%>%
  mutate(Country_Headquarters <- as.factor(Country_Headquarters))%>%
  group_by(TRBC_SectorName, Country_Headquarters)

## # A tibble: 490 x 24
## # Groups:   TRBC_SectorName, Country_Headquarters [109]
##    `Identifier(RIC)` CompanyName   TRBC_SectorName Country_Headqua~ ESGScore2021
##    <chr>             <chr>         <chr>           <chr>                   <dbl>
##  1 AAL.L             Anglo Americ~ Basic Materials United Kingdom           82.8
##  2 EVNV.VI           EVN AG        Utilities       Austria                  62.6
##  3 LENV.VI           Lenzing AG    Basic Materials Austria                  52.6
##  4 ABGV.VI           Porr AG       Industrials     Austria                  72.3
##  5 STLA.MI           Stellantis NV Consumer Cycli~ Netherlands              89.8
##  6 ITMI.MI           Italmobiliar~ Financials      Italy                    76.4
##  7 RECT.BR           Recticel NV   Basic Materials Belgium                  44.3
##  8 TLIT.MI           Telecom Ital~ Technology      Italy                    87.3
##  9 RECI.MI           Recordati In~ Healthcare      Italy                    74.9
## 10 SPMI.MI           Saipem SpA    Energy          Italy                    89.7
## # ... with 480 more rows, and 19 more variables: ESGScore2020 <dbl>,
## #   ESGScore2019 <dbl>, CO2Emissions2021 <dbl>, CO2Emissions2020 <dbl>,
## #   CO2Emissions2019 <dbl>, TotalRevenue2021 <dbl>, TotalRevenue2020 <dbl>,
## #   TotalRevenue2019 <dbl>, TotalAssets2021 <dbl>, TotalAssets2020 <dbl>,
## #   TotalAssets2019 <dbl>, EmployeesAv2021 <dbl>, EmployeesAv2020 <dbl>,
## #   EmployeesAv2019 <dbl>, ROE2021 <dbl>, ROE2020 <dbl>, ROE2019 <dbl>,
## #   TRBC_SectorName <- as.factor(TRBC_SectorName) <fct>, ...
…
#un-restricted model : checking for structural variables produces statistical significance
# in terms of C02 Emissions with an expected value of -0.012
# R-squared 0.05817 still little explanatory of how much ROE can change as dependent variable

data_trial <- data_2019 %>%
  select(1,2,3,7)

data_trial

## # A tibble: 490 x 4
## # Groups:   TRBC_SectorName [10]
##    TRBC_SectorName    ESGScore2019 CO2Emissions2019 ROE2019
##    <chr>                     <dbl>            <dbl>   <dbl>
##  1 Basic Materials            80.1        17800000    14.4 
##  2 Utilities                  64.1         3848310     4.22
##  3 Basic Materials            49.0         1750000    14.0 
##  4 Industrials                43.6          160862     8.9 
##  5 Consumer Cyclicals         91.6         3738000    17.6 
##  6 Financials                 68.5           46351     4.6 
##  7 Basic Materials            45.1          998407     6.7 
##  8 Technology                 85.4          761907.    2.46
##  9 Healthcare                 75.9           46639    29.2 
## 10 Energy                     90.9         1384500    16.6 
## # ... with 480 more rows
…
